scientific_name;english_name;dutch_name;weight_kg_av;size_cm;picture_loc
Acinonyx jubatus;Cheetah;Jachtluipaard;47;130;figures/Cheetah.jpg
Leptailurus serval;Serval;Serval;12;83;figures/Serval.jpg
Lynx rufus;Bobcat;Rode lynx;8;69;figures/Bobcat.jpg
Otocolobus manul;Pallas's cat;Pallaskat;3;57;figures/Manul.jpg
Pardofelis marmorata;Marbled cat;Marmerkat;3;52;figures/Marbled_cat.jpg
Puma concolor;Cougar;Poema;61;75;figures/Cougar.jpg
